﻿生成启动时间为 2012-10-18 20:22:30。
     1>项目“E:\zuokong\vs_project\hex_rec\hex_rec\hex_rec.vcxproj”在节点 2 上(clean 个目标)。
     1>_PrepareForClean:
         正在删除文件“Debug\hex_rec.lastbuildstate”。
     1>已完成生成项目“E:\zuokong\vs_project\hex_rec\hex_rec\hex_rec.vcxproj”(clean 个目标)的操作。

生成成功。

已用时间 00:00:00.06
